<mxfile host="app.diagrams.net" modified="2023-10-20T08:24:48.293Z" agent="Mozilla/5.0 (X11; Linux x86_64) AppleWebKit/537.36 (KHTML, like Gecko) Chrome/117.0.0.0 Safari/537.36" etag="m8GIk8ABr5Vz8my_wLO3" version="22.0.5" type="gitlab">
  <diagram id="C5RBs43oDa-KdzZeNtuy" name="Page-1">
    <mxGraphModel dx="2049" dy="1083" grid="1" gridSize="10" guides="1" tooltips="1" connect="1" arrows="1" fold="1" page="1" pageScale="1" pageWidth="827" pageHeight="1169" math="0" shadow="0">
      <root>
        <mxCell id="WIyWlLk6GJQsqaUBKTNV-0" />
        <mxCell id="WIyWlLk6GJQsqaUBKTNV-1" parent="WIyWlLk6GJQsqaUBKTNV-0" />
        <mxCell id="nIULAjj8KTtjyT0yuPMw-2" style="edgeStyle=orthogonalEdgeStyle;rounded=0;orthogonalLoop=1;jettySize=auto;html=1;" edge="1" parent="WIyWlLk6GJQsqaUBKTNV-1" source="WIyWlLk6GJQsqaUBKTNV-3" target="nIULAjj8KTtjyT0yuPMw-1">
          <mxGeometry relative="1" as="geometry" />
        </mxCell>
        <mxCell id="WIyWlLk6GJQsqaUBKTNV-3" value="&lt;font style=&quot;font-size: 10px;&quot;&gt;&lt;font style=&quot;&quot;&gt;Webhook called&amp;nbsp;&lt;/font&gt;invoice.payment_succeeded&lt;/font&gt;" style="rounded=1;whiteSpace=wrap;html=1;fontSize=12;glass=0;strokeWidth=1;shadow=0;" parent="WIyWlLk6GJQsqaUBKTNV-1" vertex="1">
          <mxGeometry x="115" y="80" width="210" height="40" as="geometry" />
        </mxCell>
        <mxCell id="nIULAjj8KTtjyT0yuPMw-5" style="edgeStyle=orthogonalEdgeStyle;rounded=0;orthogonalLoop=1;jettySize=auto;html=1;" edge="1" parent="WIyWlLk6GJQsqaUBKTNV-1" source="WIyWlLk6GJQsqaUBKTNV-6" target="nIULAjj8KTtjyT0yuPMw-4">
          <mxGeometry relative="1" as="geometry" />
        </mxCell>
        <mxCell id="nIULAjj8KTtjyT0yuPMw-7" value="No" style="edgeLabel;html=1;align=center;verticalAlign=middle;resizable=0;points=[];" vertex="1" connectable="0" parent="nIULAjj8KTtjyT0yuPMw-5">
          <mxGeometry x="-0.0513" y="-1" relative="1" as="geometry">
            <mxPoint as="offset" />
          </mxGeometry>
        </mxCell>
        <mxCell id="nIULAjj8KTtjyT0yuPMw-9" style="edgeStyle=orthogonalEdgeStyle;rounded=0;orthogonalLoop=1;jettySize=auto;html=1;" edge="1" parent="WIyWlLk6GJQsqaUBKTNV-1" source="WIyWlLk6GJQsqaUBKTNV-6" target="nIULAjj8KTtjyT0yuPMw-8">
          <mxGeometry relative="1" as="geometry" />
        </mxCell>
        <mxCell id="WIyWlLk6GJQsqaUBKTNV-6" value="&lt;font style=&quot;font-size: 10px;&quot;&gt;Is user membership payment exist ?&lt;/font&gt;" style="rhombus;whiteSpace=wrap;html=1;shadow=0;fontFamily=Helvetica;fontSize=12;align=center;strokeWidth=1;spacing=6;spacingTop=-4;" parent="WIyWlLk6GJQsqaUBKTNV-1" vertex="1">
          <mxGeometry x="125" y="290" width="190" height="80" as="geometry" />
        </mxCell>
        <mxCell id="nIULAjj8KTtjyT0yuPMw-3" style="edgeStyle=orthogonalEdgeStyle;rounded=0;orthogonalLoop=1;jettySize=auto;html=1;" edge="1" parent="WIyWlLk6GJQsqaUBKTNV-1" source="nIULAjj8KTtjyT0yuPMw-1" target="WIyWlLk6GJQsqaUBKTNV-6">
          <mxGeometry relative="1" as="geometry" />
        </mxCell>
        <mxCell id="nIULAjj8KTtjyT0yuPMw-1" value="&lt;font style=&quot;font-size: 10px;&quot;&gt;Check for user membership payment&lt;/font&gt;" style="rounded=0;whiteSpace=wrap;html=1;" vertex="1" parent="WIyWlLk6GJQsqaUBKTNV-1">
          <mxGeometry x="160" y="190" width="120" height="60" as="geometry" />
        </mxCell>
        <mxCell id="nIULAjj8KTtjyT0yuPMw-4" value="&lt;span style=&quot;font-size: 10px;&quot;&gt;Throw new UserMembershipPaymentNotFound()&lt;/span&gt;" style="rounded=1;whiteSpace=wrap;html=1;fontSize=12;glass=0;strokeWidth=1;shadow=0;" vertex="1" parent="WIyWlLk6GJQsqaUBKTNV-1">
          <mxGeometry x="380" y="310" width="210" height="40" as="geometry" />
        </mxCell>
        <mxCell id="nIULAjj8KTtjyT0yuPMw-6" value="invoice.subscription_details?.metadata?.userMembershipPaymentId" style="text;html=1;align=center;verticalAlign=middle;resizable=0;points=[];autosize=1;strokeColor=none;fillColor=none;" vertex="1" parent="WIyWlLk6GJQsqaUBKTNV-1">
          <mxGeometry x="300" y="205" width="390" height="30" as="geometry" />
        </mxCell>
        <mxCell id="nIULAjj8KTtjyT0yuPMw-12" style="edgeStyle=orthogonalEdgeStyle;rounded=0;orthogonalLoop=1;jettySize=auto;html=1;entryX=0.5;entryY=0;entryDx=0;entryDy=0;" edge="1" parent="WIyWlLk6GJQsqaUBKTNV-1" source="nIULAjj8KTtjyT0yuPMw-8" target="nIULAjj8KTtjyT0yuPMw-11">
          <mxGeometry relative="1" as="geometry" />
        </mxCell>
        <mxCell id="nIULAjj8KTtjyT0yuPMw-8" value="&lt;font style=&quot;font-size: 10px;&quot;&gt;Update user membership payment&lt;/font&gt;" style="rounded=0;whiteSpace=wrap;html=1;" vertex="1" parent="WIyWlLk6GJQsqaUBKTNV-1">
          <mxGeometry x="160" y="410" width="120" height="60" as="geometry" />
        </mxCell>
        <mxCell id="nIULAjj8KTtjyT0yuPMw-10" value="&lt;font style=&quot;font-size: 10px;&quot;&gt;updateData = {&lt;br&gt;status : invoice.status,&lt;br&gt;paymentId : invoice.id&lt;br&gt;}&lt;/font&gt;" style="text;html=1;align=center;verticalAlign=middle;resizable=0;points=[];autosize=1;strokeColor=none;fillColor=none;" vertex="1" parent="WIyWlLk6GJQsqaUBKTNV-1">
          <mxGeometry x="315" y="410" width="120" height="70" as="geometry" />
        </mxCell>
        <mxCell id="nIULAjj8KTtjyT0yuPMw-14" style="edgeStyle=orthogonalEdgeStyle;rounded=0;orthogonalLoop=1;jettySize=auto;html=1;" edge="1" parent="WIyWlLk6GJQsqaUBKTNV-1" source="nIULAjj8KTtjyT0yuPMw-11" target="nIULAjj8KTtjyT0yuPMw-13">
          <mxGeometry relative="1" as="geometry" />
        </mxCell>
        <mxCell id="nIULAjj8KTtjyT0yuPMw-11" value="&lt;span style=&quot;font-size: 10px;&quot;&gt;Check for existing user membership&lt;/span&gt;" style="rounded=0;whiteSpace=wrap;html=1;" vertex="1" parent="WIyWlLk6GJQsqaUBKTNV-1">
          <mxGeometry x="160" y="540" width="120" height="60" as="geometry" />
        </mxCell>
        <mxCell id="nIULAjj8KTtjyT0yuPMw-16" style="edgeStyle=orthogonalEdgeStyle;rounded=0;orthogonalLoop=1;jettySize=auto;html=1;" edge="1" parent="WIyWlLk6GJQsqaUBKTNV-1" source="nIULAjj8KTtjyT0yuPMw-13" target="nIULAjj8KTtjyT0yuPMw-15">
          <mxGeometry relative="1" as="geometry" />
        </mxCell>
        <mxCell id="nIULAjj8KTtjyT0yuPMw-18" style="edgeStyle=orthogonalEdgeStyle;rounded=0;orthogonalLoop=1;jettySize=auto;html=1;" edge="1" parent="WIyWlLk6GJQsqaUBKTNV-1" source="nIULAjj8KTtjyT0yuPMw-13" target="nIULAjj8KTtjyT0yuPMw-17">
          <mxGeometry relative="1" as="geometry" />
        </mxCell>
        <mxCell id="nIULAjj8KTtjyT0yuPMw-13" value="&lt;font style=&quot;font-size: 10px;&quot;&gt;Is user membership payment exist ?&lt;/font&gt;" style="rhombus;whiteSpace=wrap;html=1;shadow=0;fontFamily=Helvetica;fontSize=12;align=center;strokeWidth=1;spacing=6;spacingTop=-4;" vertex="1" parent="WIyWlLk6GJQsqaUBKTNV-1">
          <mxGeometry x="125" y="660" width="190" height="80" as="geometry" />
        </mxCell>
        <mxCell id="nIULAjj8KTtjyT0yuPMw-25" style="edgeStyle=orthogonalEdgeStyle;rounded=0;orthogonalLoop=1;jettySize=auto;html=1;entryX=1;entryY=0.5;entryDx=0;entryDy=0;" edge="1" parent="WIyWlLk6GJQsqaUBKTNV-1" source="nIULAjj8KTtjyT0yuPMw-15" target="nIULAjj8KTtjyT0yuPMw-20">
          <mxGeometry relative="1" as="geometry" />
        </mxCell>
        <mxCell id="nIULAjj8KTtjyT0yuPMw-15" value="&lt;font style=&quot;font-size: 10px;&quot;&gt;Update user membersehip, Extend validity for 1 month&lt;/font&gt;" style="rounded=0;whiteSpace=wrap;html=1;" vertex="1" parent="WIyWlLk6GJQsqaUBKTNV-1">
          <mxGeometry x="590" y="750" width="120" height="60" as="geometry" />
        </mxCell>
        <mxCell id="nIULAjj8KTtjyT0yuPMw-24" style="edgeStyle=orthogonalEdgeStyle;rounded=0;orthogonalLoop=1;jettySize=auto;html=1;" edge="1" parent="WIyWlLk6GJQsqaUBKTNV-1" source="nIULAjj8KTtjyT0yuPMw-17" target="nIULAjj8KTtjyT0yuPMw-20">
          <mxGeometry relative="1" as="geometry" />
        </mxCell>
        <mxCell id="nIULAjj8KTtjyT0yuPMw-17" value="&lt;font style=&quot;font-size: 10px;&quot;&gt;Create user Membership, vaild for 1 month&lt;/font&gt;" style="rounded=0;whiteSpace=wrap;html=1;" vertex="1" parent="WIyWlLk6GJQsqaUBKTNV-1">
          <mxGeometry x="160" y="800" width="120" height="60" as="geometry" />
        </mxCell>
        <mxCell id="nIULAjj8KTtjyT0yuPMw-19" value="&lt;div&gt;&lt;font style=&quot;font-size: 10px;&quot;&gt;&amp;nbsp; &amp;nbsp; &amp;nbsp; &amp;nbsp; const userMembershipData: IUserMembership = {&lt;/font&gt;&lt;/div&gt;&lt;div&gt;&lt;font style=&quot;font-size: 10px;&quot;&gt;&amp;nbsp; &amp;nbsp; &amp;nbsp; &amp;nbsp; &amp;nbsp; userId: userIdPayment,&lt;/font&gt;&lt;/div&gt;&lt;div&gt;&lt;font style=&quot;font-size: 10px;&quot;&gt;&amp;nbsp; &amp;nbsp; &amp;nbsp; &amp;nbsp; &amp;nbsp; membershipId: membershipIdPayment,&lt;/font&gt;&lt;/div&gt;&lt;div&gt;&lt;font style=&quot;font-size: 10px;&quot;&gt;&amp;nbsp; &amp;nbsp; &amp;nbsp; &amp;nbsp; &amp;nbsp; isSubcriptionActive: true,&lt;/font&gt;&lt;/div&gt;&lt;div&gt;&lt;font style=&quot;font-size: 10px;&quot;&gt;&amp;nbsp; &amp;nbsp; &amp;nbsp; &amp;nbsp; &amp;nbsp; validUntil: addMonths(new Date(), 1),&lt;/font&gt;&lt;/div&gt;&lt;div&gt;&lt;font style=&quot;font-size: 10px;&quot;&gt;&amp;nbsp; &amp;nbsp; &amp;nbsp; &amp;nbsp; &amp;nbsp; subscription: {&lt;/font&gt;&lt;/div&gt;&lt;div&gt;&lt;font style=&quot;font-size: 10px;&quot;&gt;&amp;nbsp; &amp;nbsp; &amp;nbsp; &amp;nbsp; &amp;nbsp; &amp;nbsp; subscriptionType: SubscriptionType.STRIPE,&lt;/font&gt;&lt;/div&gt;&lt;div&gt;&lt;font style=&quot;font-size: 10px;&quot;&gt;&amp;nbsp; &amp;nbsp; &amp;nbsp; &amp;nbsp; &amp;nbsp; &amp;nbsp; subscriptionId,&lt;/font&gt;&lt;/div&gt;&lt;div&gt;&lt;font style=&quot;font-size: 10px;&quot;&gt;&amp;nbsp; &amp;nbsp; &amp;nbsp; &amp;nbsp; &amp;nbsp; },&lt;/font&gt;&lt;/div&gt;&lt;div&gt;&lt;font style=&quot;font-size: 10px;&quot;&gt;&amp;nbsp; &amp;nbsp; &amp;nbsp; &amp;nbsp; };&lt;/font&gt;&lt;/div&gt;" style="text;html=1;align=center;verticalAlign=middle;resizable=0;points=[];autosize=1;strokeColor=none;fillColor=none;" vertex="1" parent="WIyWlLk6GJQsqaUBKTNV-1">
          <mxGeometry x="290" y="540" width="270" height="160" as="geometry" />
        </mxCell>
        <mxCell id="nIULAjj8KTtjyT0yuPMw-20" value="&lt;font style=&quot;font-size: 10px;&quot;&gt;Send email&lt;/font&gt;" style="rounded=1;whiteSpace=wrap;html=1;" vertex="1" parent="WIyWlLk6GJQsqaUBKTNV-1">
          <mxGeometry x="390" y="880" width="120" height="60" as="geometry" />
        </mxCell>
      </root>
    </mxGraphModel>
  </diagram>
</mxfile>
